trytond
trytond-account
trytond_account_de_skr03
trytond-account-invoice
trytond-account-invoice-stock
trytond-account-payment
trytond-account-product
trytond-account-statement
trytond-account-stock-continental
trytond-bank
trytond-company
trytond-company-work-time
trytond-country
trytond-currency
trytond-party
trytond-product
trytond-product-price-list
trytond-project
trytond-project-invoice
trytond-project-revenue
trytond-purchase
trytond-purchase-request
trytond-sale
trytond-sale-amendment
trytond-sale-history
trytond-sale-price-list
trytond-sale-supply
trytond-stock
trytond-stock-consignment
trytond-stock-supply
trytond-timesheet
trytond-timesheet-cost
